<?xml version="1.0" encoding="UTF-8" standalone="no"?>
<!-- made by computerguy096 -->
<svg
   height="151.22939"
   width="171.29996"
   version="1.1"
   id="svg10"
   sodipodi:docname="winxp-61d0843364f05814737662.svg"
   inkscape:version="1.1.2 (b8e25be833, 2022-02-05)"
   xmlns:inkscape="http://www.inkscape.org/namespaces/inkscape"
   xmlns:sodipodi="http://sodipodi.sourceforge.net/DTD/sodipodi-0.dtd"
   xmlns:xlink="http://www.w3.org/1999/xlink"
   xmlns="http://www.w3.org/2000/svg"
   xmlns:svg="http://www.w3.org/2000/svg">
  <defs
     id="defs14">
    <linearGradient
       inkscape:collect="always"
       id="linearGradient6093">
      <stop
         style="stop-color:#09498e;stop-opacity:1;"
         offset="0"
         id="stop6089" />
      <stop
         style="stop-color:#09498e;stop-opacity:0;"
         offset="1"
         id="stop6091" />
    </linearGradient>
    <linearGradient
       inkscape:collect="always"
       id="linearGradient5943">
      <stop
         style="stop-color:#f1bd39;stop-opacity:1;"
         offset="0"
         id="stop5939" />
      <stop
         style="stop-color:#f1bd39;stop-opacity:0;"
         offset="1"
         id="stop5941" />
    </linearGradient>
    <linearGradient
       inkscape:collect="always"
       id="linearGradient2901">
      <stop
         style="stop-color:#25541a;stop-opacity:1;"
         offset="0"
         id="stop2897" />
      <stop
         style="stop-color:#25541a;stop-opacity:0;"
         offset="1"
         id="stop2899" />
    </linearGradient>
    <linearGradient
       inkscape:collect="always"
       id="linearGradient2857">
      <stop
         style="stop-color:#f14907;stop-opacity:1;"
         offset="0"
         id="stop2853" />
      <stop
         style="stop-color:#f14907;stop-opacity:0;"
         offset="1"
         id="stop2855" />
    </linearGradient>
    <linearGradient
       inkscape:collect="always"
       id="linearGradient2467">
      <stop
         style="stop-color:#244b93;stop-opacity:1;"
         offset="0"
         id="stop2463" />
      <stop
         style="stop-color:#c3dee9;stop-opacity:1"
         offset="1"
         id="stop2465" />
    </linearGradient>
    <linearGradient
       inkscape:collect="always"
       id="linearGradient1553">
      <stop
         style="stop-color:#f38102;stop-opacity:1;"
         offset="0"
         id="stop1549" />
      <stop
         style="stop-color:#f5e998;stop-opacity:1"
         offset="1"
         id="stop1551" />
    </linearGradient>
    <linearGradient
       inkscape:collect="always"
       id="linearGradient7099">
      <stop
         style="stop-color:#2e671a;stop-opacity:1;"
         offset="0.19565217"
         id="stop7095" />
      <stop
         style="stop-color:#c9e17c;stop-opacity:1;"
         offset="1"
         id="stop7097" />
    </linearGradient>
    <linearGradient
       inkscape:collect="always"
       id="linearGradient6314">
      <stop
         style="stop-color:#b41102;stop-opacity:1;"
         offset="0.16425119"
         id="stop6310" />
      <stop
         style="stop-color:#fde21f;stop-opacity:1;"
         offset="0.95169079"
         id="stop6312" />
    </linearGradient>
    <linearGradient
       inkscape:collect="always"
       xlink:href="#linearGradient6314"
       id="linearGradient6316"
       x1="34.884476"
       y1="6.566659"
       x2="82.074005"
       y2="67.035973"
       gradientUnits="userSpaceOnUse"
       gradientTransform="translate(0.49997341,0.51469515)" />
    <linearGradient
       inkscape:collect="always"
       xlink:href="#linearGradient7099"
       id="linearGradient7101"
       x1="170"
       y1="20.700001"
       x2="92.141159"
       y2="73.102257"
       gradientUnits="userSpaceOnUse"
       gradientTransform="translate(0.49997341,0.51469515)" />
    <linearGradient
       inkscape:collect="always"
       xlink:href="#linearGradient1553"
       id="linearGradient1555"
       x1="135"
       y1="142.8"
       x2="92.612633"
       y2="94.010834"
       gradientUnits="userSpaceOnUse"
       gradientTransform="translate(0.49997341,0.51469515)" />
    <linearGradient
       inkscape:collect="always"
       xlink:href="#linearGradient2467"
       id="linearGradient2469"
       x1="10.830325"
       y1="117.84513"
       x2="79.5"
       y2="77.5"
       gradientUnits="userSpaceOnUse"
       gradientTransform="translate(0.49997341,0.51469515)" />
    <linearGradient
       inkscape:collect="always"
       xlink:href="#linearGradient2857"
       id="linearGradient2859"
       x1="18.51943"
       y1="33.590057"
       x2="98.980209"
       y2="33.590057"
       gradientUnits="userSpaceOnUse"
       gradientTransform="translate(0.49997341,0.51469515)" />
    <radialGradient
       inkscape:collect="always"
       xlink:href="#linearGradient2901"
       id="radialGradient3307"
       cx="122.47011"
       cy="65.556587"
       fx="122.47011"
       fy="65.556587"
       r="40.372444"
       gradientTransform="matrix(1,0,0,0.85331558,0.49997341,7.9588118)"
       gradientUnits="userSpaceOnUse" />
    <linearGradient
       inkscape:collect="always"
       xlink:href="#linearGradient5943"
       id="linearGradient5949"
       x1="122.66245"
       y1="85.199394"
       x2="70.120918"
       y2="111.19218"
       gradientUnits="userSpaceOnUse"
       gradientTransform="translate(0.49997341,0.51469515)" />
    <linearGradient
       inkscape:collect="always"
       xlink:href="#linearGradient6093"
       id="linearGradient6095"
       x1="-0.76605529"
       y1="100.42932"
       x2="80.081726"
       y2="100.42932"
       gradientUnits="userSpaceOnUse"
       gradientTransform="translate(0.49997341,0.51469515)" />
  </defs>
  <sodipodi:namedview
     id="namedview12"
     pagecolor="#ffffff"
     bordercolor="#000000"
     borderopacity="0.25"
     inkscape:showpageshadow="2"
     inkscape:pageopacity="0.0"
     inkscape:pagecheckerboard="0"
     inkscape:deskcolor="#d1d1d1"
     showgrid="false"
     inkscape:zoom="5.54"
     inkscape:cx="69.494585"
     inkscape:cy="82.851986"
     inkscape:window-width="2560"
     inkscape:window-height="1506"
     inkscape:window-x="-11"
     inkscape:window-y="-11"
     inkscape:window-maximized="1"
     inkscape:current-layer="svg10"
     inkscape:pageshadow="2"
     inkscape:snap-grids="true"
     fit-margin-top="0"
     fit-margin-left="0"
     fit-margin-right="0"
     fit-margin-bottom="0" />
  <path
     d="m 170.49997,21.214695 c -33,13.7 -49,6 -63.2,-3.6 l -15.999997,56.4 c 14.299997,9.7 31.499997,17.7 63.199997,3.5 l 16.3,-56.3 z"
     fill="#91c300"
     id="path2"
     style="fill:url(#linearGradient7101);fill-opacity:1;stroke:url(#radialGradient3307);stroke-linejoin:round;stroke-opacity:1" />
  <path
     d="m 63.499973,134.7147 c -14.3,-9.6 -30,-17.6 -62.99999959,-3.9 L 16.699973,74.214695 c 33,-13.6 49,-5.9 63.3,3.8 z"
     fill="#00b4f1"
     id="path4"
     style="fill:url(#linearGradient2469);fill-opacity:1;stroke:url(#linearGradient6095);stroke-linejoin:round;stroke-opacity:1" />
  <path
     d="m 82.699973,67.814695 a 53.9,53.9 0 0 0 -31,-11.3 c -8.7,-0.1 -19.1,2.4 -32.2,7.8 l 16.2,-56.3999998 c 33.1,-13.7 49,-6 63.3,3.6999998 z"
     fill="#f8682c"
     id="path6"
     style="fill:url(#linearGradient6316);fill-opacity:1;stroke:url(#linearGradient2859);stroke-linejoin:bevel;stroke-opacity:1" />
  <path
     d="m 88.499973,83.514695 c 14.399997,9.6 30.299997,17.300005 63.299997,3.6 l -16.3,56.200005 c -33,13.7 -48.899997,6 -63.199997,-3.7 l 16.3,-56.100005 z"
     fill="#ffc300"
     id="path8"
     style="opacity:1;fill:url(#linearGradient1555);fill-opacity:1;stroke:url(#linearGradient5949);stroke-linejoin:round;stroke-opacity:1" />
</svg>
